{
  "user": "wjs",
  "key": "key",
  "servers": [
    {
      "ip": "192.168.167.121",
      "port": "9999",
      "available": true,
      "last_check_date": "2018-01-08T11:37:03.602779473+08:00"
    },
    {
      "ip": "192.168.167.122",
      "port": "9999",
      "available": true,
      "last_check_date": "2018-01-08T11:37:03.602779473+08:00"
    },
    {
      "ip": "192.168.167.123",
      "port": "9999",
      "available": true,
      "last_check_date": "2018-01-08T11:37:03.602779473+08:00"
    }
  ],
  "hash_ring_node_replica_num": 64,
  "transfer_server_replica_num": 3,
  "part_size_limit": 67108864,
  "upload_thread_per_file_limit": 3,
  "uid":9999,
  "gid":9999,
  "request_timeout": 90
}